{
    "name": "PlayerControls",
    "maps": [
        {
            "name": "Player Movement",
            "id": "faa8a0c7-e2dd-4a1b-8a0c-619eed1bd9f8",
            "actions": [
                {
                    "name": "Movement",
                    "type": "PassThrough",
                    "id": "326694e7-9040-4280-8439-f535f97239e5",
                    "expectedControlType": "Vector2",
                    "processors": "",
                    "interactions": ""
                },
                {
                    "name": "Camera",
                    "type": "PassThrough",
                    "id": "50a4ca54-86e3-46b7-b598-26a22d5fbdfd",
                    "expectedControlType": "Vector2",
                    "processors": "NormalizeVector2",
                    "interactions": ""
                }
            ],
            "bindings": [
                {
                    "name": "WASD",
                    "id": "7409b765-56ab-4fea-abf1-3675d0687653",
                    "path": "2DVector(mode=2)",
                    "interactions": "",
                    "processors": "",
                    "groups": "",
                    "action": "Movement",
                    "isComposite": true,
                    "isPartOfComposite": false
                },
                {
                    "name": "up",
                    "id": "f4c96a35-7454-4f21-b1ac-502b99a6a807",
                    "path": "<Keyboard>/w",
                    "interactions": "",
                    "processors": "",
                    "groups": "",
                    "action": "Movement",
                    "isComposite": false,
                    "isPartOfComposite": true
                },
                {
                    "name": "down",
                    "id": "65ce63a9-8afc-4e59-a86f-f809f5f1cd4b",
                    "path": "<Keyboard>/s",
                    "interactions": "",
                    "processors": "",
                    "groups": "",
                    "action": "Movement",
                    "isComposite": false,
                    "isPartOfComposite": true
                },
                {
                    "name": "left",
                    "id": "3f21eade-0c01-4eaa-9904-e3ec413f3357",
                    "path": "<Keyboard>/a",
                    "interactions": "",
                    "processors": "",
                    "groups": "",
                    "action": "Movement",
                    "isComposite": false,
                    "isPartOfComposite": true
                },
                {
                    "name": "right",
                    "id": "c8654d9d-1cdf-45e5-b1b1-f8f0fc2e11e7",
                    "path": "<Keyboard>/d",
                    "interactions": "",
                    "processors": "",
                    "groups": "",
                    "action": "Movement",
                    "isComposite": false,
                    "isPartOfComposite": true
                },
                {
                    "name": "WASD-ARROW",
                    "id": "c1121ce4-999c-4e59-8414-6358198e1c77",
                    "path": "2DVector(mode=1)",
                    "interactions": "",
                    "processors": "",
                    "groups": "",
                    "action": "Movement",
                    "isComposite": true,
                    "isPartOfComposite": false
                },
                {
                    "name": "up",
                    "id": "da102e8a-d697-41b0-9d4b-148a24ffd135",
                    "path": "<Keyboard>/upArrow",
                    "interactions": "",
                    "processors": "",
                    "groups": "",
                    "action": "Movement",
                    "isComposite": false,
                    "isPartOfComposite": true
                },
                {
                    "name": "down",
                    "id": "c97f98d4-82d2-435b-ade2-433da73bdb3b",
                    "path": "<Keyboard>/downArrow",
                    "interactions": "",
                    "processors": "",
                    "groups": "",
                    "action": "Movement",
                    "isComposite": false,
                    "isPartOfComposite": true
                },
                {
                    "name": "left",
                    "id": "4858121f-30f4-474d-ae2a-5bb1225a1ca5",
                    "path": "<Keyboard>/leftArrow",
                    "interactions": "",
                    "processors": "",
                    "groups": "",
                    "action": "Movement",
                    "isComposite": false,
                    "isPartOfComposite": true
                },
                {
                    "name": "right",
                    "id": "3508a651-76f8-4318-9db0-38d56d025fda",
                    "path": "<Keyboard>/rightArrow",
                    "interactions": "",
                    "processors": "",
                    "groups": "",
                    "action": "Movement",
                    "isComposite": false,
                    "isPartOfComposite": true
                },
                {
                    "name": "",
                    "id": "a8ba7178-e0cc-4ee4-84aa-95a0aa064368",
                    "path": "<Mouse>/delta",
                    "interactions": "",
                    "processors": "",
                    "groups": "",
                    "action": "Camera",
                    "isComposite": false,
                    "isPartOfComposite": false
                }
            ]
        },
        {
            "name": "Player Actions",
            "id": "35d48403-3aaa-4fc5-91ed-3e452ec3fe3b",
            "actions": [
                {
                    "name": "Attack",
                    "type": "Button",
                    "id": "7089d317-dcfa-43ff-90e5-b25638884206",
                    "expectedControlType": "Button",
                    "processors": "",
                    "interactions": ""
                },
                {
                    "name": "Crawl",
                    "type": "Button",
                    "id": "962d6961-303a-49a4-ae90-b146683b2fdf",
                    "expectedControlType": "Button",
                    "processors": "",
                    "interactions": ""
                },
                {
                    "name": "Guard",
                    "type": "Button",
                    "id": "03d7e135-0714-4b23-b93a-621fa2a8c730",
                    "expectedControlType": "Button",
                    "processors": "",
                    "interactions": ""
                },
                {
                    "name": "Evade",
                    "type": "Button",
                    "id": "4955f40d-ecb0-4019-9fe5-f0b35f78422b",
                    "expectedControlType": "Button",
                    "processors": "",
                    "interactions": ""
                },
                {
                    "name": "LockOn",
                    "type": "Button",
                    "id": "56e7b688-8a52-412f-bc4c-d1515909d93e",
                    "expectedControlType": "Button",
                    "processors": "",
                    "interactions": ""
                }
            ],
            "bindings": [
                {
                    "name": "",
                    "id": "42122ae1-df33-4c5d-97df-7828fa40bb36",
                    "path": "<Keyboard>/h",
                    "interactions": "",
                    "processors": "",
                    "groups": "",
                    "action": "Attack",
                    "isComposite": false,
                    "isPartOfComposite": false
                },
                {
                    "name": "",
                    "id": "4a7ac335-a826-476a-8017-9e0f5120a922",
                    "path": "<Mouse>/leftButton",
                    "interactions": "",
                    "processors": "",
                    "groups": "",
                    "action": "Attack",
                    "isComposite": false,
                    "isPartOfComposite": false
                },
                {
                    "name": "",
                    "id": "23efe014-ff3f-4744-9a1d-398ec413ee87",
                    "path": "<Keyboard>/ctrl",
                    "interactions": "",
                    "processors": "",
                    "groups": "",
                    "action": "Crawl",
                    "isComposite": false,
                    "isPartOfComposite": false
                },
                {
                    "name": "",
                    "id": "95c177e6-4ee3-415c-9d12-6d012091c6bd",
                    "path": "<Keyboard>/b",
                    "interactions": "",
                    "processors": "",
                    "groups": "",
                    "action": "Guard",
                    "isComposite": false,
                    "isPartOfComposite": false
                },
                {
                    "name": "",
                    "id": "e55c25e2-5507-42bd-b1c5-3ed1a7571bb2",
                    "path": "<Mouse>/rightButton",
                    "interactions": "",
                    "processors": "",
                    "groups": "",
                    "action": "Guard",
                    "isComposite": false,
                    "isPartOfComposite": false
                },
                {
                    "name": "",
                    "id": "fbadc979-ca2c-4a09-b2a6-6c9234490bc6",
                    "path": "<Keyboard>/space",
                    "interactions": "",
                    "processors": "",
                    "groups": "",
                    "action": "Evade",
                    "isComposite": false,
                    "isPartOfComposite": false
                },
                {
                    "name": "",
                    "id": "d45b56f8-ccb2-4a18-a54a-19bbf2637779",
                    "path": "<Keyboard>/g",
                    "interactions": "",
                    "processors": "",
                    "groups": "",
                    "action": "LockOn",
                    "isComposite": false,
                    "isPartOfComposite": false
                }
            ]
        }
    ],
    "controlSchemes": []
}